Who said what EC: A basis for analyses
…
# A tibble: 3 x 3
  Category mean_val_mem mean_id_mem
  <chr>           <dbl>       <dbl>
1 Animal          0.811       0.646
2 Object          0.860       0.702
3 Scene           0.790       0.599

dat_source_us_theme = dat_us_old %>%
  group_by(theme, Category, us) %>%
  summarize(mean_val_mem = mean(as.numeric(val_us_accuracy_bin))
            ,mean_id_mem = mean(as.numeric(id_us_accuracy_bin)))
dat_source_us_theme

# A tibble: 24 x 5
# Groups:   theme, Category [23]
   theme  Category us    mean_val_mem mean_id_mem
   <chr>  <chr>    <chr>        <dbl>       <dbl>
 1 "Beac" Scene    p11          0.952       0.762
 2 "Bloo" Object   n6           0.852       0.704
 3 "Brid" Scene    p8           0.708       0.625
 4 "Car " Object   n1           0.839       0.613
 5 "Cock" Animal   n12          0.833       0.667
 6 "Cold" Object   p12          0.844       0.75 
 7 "Dest" Scene    n2           0.783       0.609
 8 "Dirt" Scene    n10          0.65        0.4  
 9 "Dog " Animal   n4           0.905       0.762
10 "Elep" Animal   p3           0.767       0.467
# ... with 14 more rows
…
